[2015-02-12 09:25:27] local.ERROR: exception 'Symfony\Component\HttpKernel\Exception\NotFoundHttpException' in E:\xampp\htdocs\project\2015\2015-01\blueapp\code\vendor\laravel\framework\src\Illuminate\Routing\RouteCollection.php:146
Stack trace:
#0 E:\xampp\htdocs\project\2015\2015-01\blueapp\code\vendor\laravel\framework\src\Illuminate\Routing\Router.php(1021): Illuminate\Routing\RouteCollection->match(Object(Illuminate\Http\Request))
#1 E:\xampp\htdocs\project\2015\2015-01\blueapp\code\vendor\laravel\framework\src\Illuminate\Routing\Router.php(989): Illuminate\Routing\Router->findRoute(Object(Illuminate\Http\Request))
#2 E:\xampp\htdocs\project\2015\2015-01\blueapp\code\vendor\laravel\framework\src\Illuminate\Routing\Router.php(968): Illuminate\Routing\Router->dispatchToRoute(Object(Illuminate\Http\Request))
#3 E:\xampp\htdocs\project\2015\2015-01\blueapp\code\vendor\laravel\framework\src\Illuminate\Foundation\Application.php(738): Illuminate\Routing\Router->dispatch(Object(Illuminate\Http\Request))
#4 E:\xampp\htdocs\project\2015\2015-01\blueapp\code\vendor\laravel\framework\src\Illuminate\Foundation\Application.php(708): Illuminate\Foundation\Application->dispatch(Object(Illuminate\Http\Request))
#5 E:\xampp\htdocs\project\2015\2015-01\blueapp\code\vendor\laravel\framework\src\Illuminate\Http\FrameGuard.php(38): Illuminate\Foundation\Application->handle(Object(Illuminate\Http\Request), 1, true)
#6 E:\xampp\htdocs\project\2015\2015-01\blueapp\code\vendor\laravel\framework\src\Illuminate\Session\Middleware.php(72): Illuminate\Http\FrameGuard->handle(Object(Illuminate\Http\Request), 1, true)
#7 E:\xampp\htdocs\project\2015\2015-01\blueapp\code\vendor\laravel\framework\src\Illuminate\Cookie\Queue.php(47): Illuminate\Session\Middleware->handle(Object(Illuminate\Http\Request), 1, true)
#8 E:\xampp\htdocs\project\2015\2015-01\blueapp\code\vendor\laravel\framework\src\Illuminate\Cookie\Guard.php(51): Illuminate\Cookie\Queue->handle(Object(Illuminate\Http\Request), 1, true)
#9 E:\xampp\htdocs\project\2015\2015-01\blueapp\code\vendor\stack\builder\src\Stack\StackedHttpKernel.php(23): Illuminate\Cookie\Guard->handle(Object(Illuminate\Http\Request), 1, true)
#10 E:\xampp\htdocs\project\2015\2015-01\blueapp\code\vendor\laravel\framework\src\Illuminate\Foundation\Application.php(606): Stack\StackedHttpKernel->handle(Object(Illuminate\Http\Request))
#11 E:\xampp\htdocs\project\2015\2015-01\blueapp\code\public\index.php(50): Illuminate\Foundation\Application->run()
#12 {main} [] []
[2015-02-12 09:26:08] local.ERROR: exception 'Symfony\Component\HttpKernel\Exception\NotFoundHttpException' in E:\xampp\htdocs\project\2015\2015-01\blueapp\code\vendor\laravel\framework\src\Illuminate\Routing\RouteCollection.php:146
Stack trace:
#0 E:\xampp\htdocs\project\2015\2015-01\blueapp\code\vendor\laravel\framework\src\Illuminate\Routing\Router.php(1021): Illuminate\Routing\RouteCollection->match(Object(Illuminate\Http\Request))
#1 E:\xampp\htdocs\project\2015\2015-01\blueapp\code\vendor\laravel\framework\src\Illuminate\Routing\Router.php(989): Illuminate\Routing\Router->findRoute(Object(Illuminate\Http\Request))
#2 E:\xampp\htdocs\project\2015\2015-01\blueapp\code\vendor\laravel\framework\src\Illuminate\Routing\Router.php(968): Illuminate\Routing\Router->dispatchToRoute(Object(Illuminate\Http\Request))
#3 E:\xampp\htdocs\project\2015\2015-01\blueapp\code\vendor\laravel\framework\src\Illuminate\Foundation\Application.php(738): Illuminate\Routing\Router->dispatch(Object(Illuminate\Http\Request))
#4 E:\xampp\htdocs\project\2015\2015-01\blueapp\code\vendor\laravel\framework\src\Illuminate\Foundation\Application.php(708): Illuminate\Foundation\Application->dispatch(Object(Illuminate\Http\Request))
#5 E:\xampp\htdocs\project\2015\2015-01\blueapp\code\vendor\laravel\framework\src\Illuminate\Http\FrameGuard.php(38): Illuminate\Foundation\Application->handle(Object(Illuminate\Http\Request), 1, true)
#6 E:\xampp\htdocs\project\2015\2015-01\blueapp\code\vendor\laravel\framework\src\Illuminate\Session\Middleware.php(72): Illuminate\Http\FrameGuard->handle(Object(Illuminate\Http\Request), 1, true)
#7 E:\xampp\htdocs\project\2015\2015-01\blueapp\code\vendor\laravel\framework\src\Illuminate\Cookie\Queue.php(47): Illuminate\Session\Middleware->handle(Object(Illuminate\Http\Request), 1, true)
#8 E:\xampp\htdocs\project\2015\2015-01\blueapp\code\vendor\laravel\framework\src\Illuminate\Cookie\Guard.php(51): Illuminate\Cookie\Queue->handle(Object(Illuminate\Http\Request), 1, true)
#9 E:\xampp\htdocs\project\2015\2015-01\blueapp\code\vendor\stack\builder\src\Stack\StackedHttpKernel.php(23): Illuminate\Cookie\Guard->handle(Object(Illuminate\Http\Request), 1, true)
#10 E:\xampp\htdocs\project\2015\2015-01\blueapp\code\vendor\laravel\framework\src\Illuminate\Foundation\Application.php(606): Stack\StackedHttpKernel->handle(Object(Illuminate\Http\Request))
#11 E:\xampp\htdocs\project\2015\2015-01\blueapp\code\public\index.php(50): Illuminate\Foundation\Application->run()
#12 {main} [] []
[2015-02-12 09:26:14] local.ERROR: exception 'Symfony\Component\HttpKernel\Exception\NotFoundHttpException' in E:\xampp\htdocs\project\2015\2015-01\blueapp\code\vendor\laravel\framework\src\Illuminate\Routing\RouteCollection.php:146
Stack trace:
#0 E:\xampp\htdocs\project\2015\2015-01\blueapp\code\vendor\laravel\framework\src\Illuminate\Routing\Router.php(1021): Illuminate\Routing\RouteCollection->match(Object(Illuminate\Http\Request))
#1 E:\xampp\htdocs\project\2015\2015-01\blueapp\code\vendor\laravel\framework\src\Illuminate\Routing\Router.php(989): Illuminate\Routing\Router->findRoute(Object(Illuminate\Http\Request))
#2 E:\xampp\htdocs\project\2015\2015-01\blueapp\code\vendor\laravel\framework\src\Illuminate\Routing\Router.php(968): Illuminate\Routing\Router->dispatchToRoute(Object(Illuminate\Http\Request))
#3 E:\xampp\htdocs\project\2015\2015-01\blueapp\code\vendor\laravel\framework\src\Illuminate\Foundation\Application.php(738): Illuminate\Routing\Router->dispatch(Object(Illuminate\Http\Request))
#4 E:\xampp\htdocs\project\2015\2015-01\blueapp\code\vendor\laravel\framework\src\Illuminate\Foundation\Application.php(708): Illuminate\Foundation\Application->dispatch(Object(Illuminate\Http\Request))
#5 E:\xampp\htdocs\project\2015\2015-01\blueapp\code\vendor\laravel\framework\src\Illuminate\Http\FrameGuard.php(38): Illuminate\Foundation\Application->handle(Object(Illuminate\Http\Request), 1, true)
#6 E:\xampp\htdocs\project\2015\2015-01\blueapp\code\vendor\laravel\framework\src\Illuminate\Session\Middleware.php(72): Illuminate\Http\FrameGuard->handle(Object(Illuminate\Http\Request), 1, true)
#7 E:\xampp\htdocs\project\2015\2015-01\blueapp\code\vendor\laravel\framework\src\Illuminate\Cookie\Queue.php(47): Illuminate\Session\Middleware->handle(Object(Illuminate\Http\Request), 1, true)
#8 E:\xampp\htdocs\project\2015\2015-01\blueapp\code\vendor\laravel\framework\src\Illuminate\Cookie\Guard.php(51): Illuminate\Cookie\Queue->handle(Object(Illuminate\Http\Request), 1, true)
#9 E:\xampp\htdocs\project\2015\2015-01\blueapp\code\vendor\stack\builder\src\Stack\StackedHttpKernel.php(23): Illuminate\Cookie\Guard->handle(Object(Illuminate\Http\Request), 1, true)
#10 E:\xampp\htdocs\project\2015\2015-01\blueapp\code\vendor\laravel\framework\src\Illuminate\Foundation\Application.php(606): Stack\StackedHttpKernel->handle(Object(Illuminate\Http\Request))
#11 E:\xampp\htdocs\project\2015\2015-01\blueapp\code\public\index.php(50): Illuminate\Foundation\Application->run()
#12 {main} [] []
[2015-02-12 09:27:02] local.ERROR: exception 'Symfony\Component\HttpKernel\Exception\NotFoundHttpException' in E:\xampp\htdocs\project\2015\2015-01\blueapp\code\vendor\laravel\framework\src\Illuminate\Routing\RouteCollection.php:146
Stack trace:
#0 E:\xampp\htdocs\project\2015\2015-01\blueapp\code\vendor\laravel\framework\src\Illuminate\Routing\Router.php(1021): Illuminate\Routing\RouteCollection->match(Object(Illuminate\Http\Request))
#1 E:\xampp\htdocs\project\2015\2015-01\blueapp\code\vendor\laravel\framework\src\Illuminate\Routing\Router.php(989): Illuminate\Routing\Router->findRoute(Object(Illuminate\Http\Request))
#2 E:\xampp\htdocs\project\2015\2015-01\blueapp\code\vendor\laravel\framework\src\Illuminate\Routing\Router.php(968): Illuminate\Routing\Router->dispatchToRoute(Object(Illuminate\Http\Request))
#3 E:\xampp\htdocs\project\2015\2015-01\blueapp\code\vendor\laravel\framework\src\Illuminate\Foundation\Application.php(738): Illuminate\Routing\Router->dispatch(Object(Illuminate\Http\Request))
#4 E:\xampp\htdocs\project\2015\2015-01\blueapp\code\vendor\laravel\framework\src\Illuminate\Foundation\Application.php(708): Illuminate\Foundation\Application->dispatch(Object(Illuminate\Http\Request))
#5 E:\xampp\htdocs\project\2015\2015-01\blueapp\code\vendor\laravel\framework\src\Illuminate\Http\FrameGuard.php(38): Illuminate\Foundation\Application->handle(Object(Illuminate\Http\Request), 1, true)
#6 E:\xampp\htdocs\project\2015\2015-01\blueapp\code\vendor\laravel\framework\src\Illuminate\Session\Middleware.php(72): Illuminate\Http\FrameGuard->handle(Object(Illuminate\Http\Request), 1, true)
#7 E:\xampp\htdocs\project\2015\2015-01\blueapp\code\vendor\laravel\framework\src\Illuminate\Cookie\Queue.php(47): Illuminate\Session\Middleware->handle(Object(Illuminate\Http\Request), 1, true)
#8 E:\xampp\htdocs\project\2015\2015-01\blueapp\code\vendor\laravel\framework\src\Illuminate\Cookie\Guard.php(51): Illuminate\Cookie\Queue->handle(Object(Illuminate\Http\Request), 1, true)
#9 E:\xampp\htdocs\project\2015\2015-01\blueapp\code\vendor\stack\builder\src\Stack\StackedHttpKernel.php(23): Illuminate\Cookie\Guard->handle(Object(Illuminate\Http\Request), 1, true)
#10 E:\xampp\htdocs\project\2015\2015-01\blueapp\code\vendor\laravel\framework\src\Illuminate\Foundation\Application.php(606): Stack\StackedHttpKernel->handle(Object(Illuminate\Http\Request))
#11 E:\xampp\htdocs\project\2015\2015-01\blueapp\code\public\index.php(50): Illuminate\Foundation\Application->run()
#12 {main} [] []
[2015-02-12 09:34:06] local.ERROR: exception 'Symfony\Component\HttpKernel\Exception\NotFoundHttpException' in E:\xampp\htdocs\project\2015\2015-01\blueapp\code\vendor\laravel\framework\src\Illuminate\Routing\RouteCollection.php:146
Stack trace:
#0 E:\xampp\htdocs\project\2015\2015-01\blueapp\code\vendor\laravel\framework\src\Illuminate\Routing\Router.php(1021): Illuminate\Routing\RouteCollection->match(Object(Illuminate\Http\Request))
#1 E:\xampp\htdocs\project\2015\2015-01\blueapp\code\vendor\laravel\framework\src\Illuminate\Routing\Router.php(989): Illuminate\Routing\Router->findRoute(Object(Illuminate\Http\Request))
#2 E:\xampp\htdocs\project\2015\2015-01\blueapp\code\vendor\laravel\framework\src\Illuminate\Routing\Router.php(968): Illuminate\Routing\Router->dispatchToRoute(Object(Illuminate\Http\Request))
#3 E:\xampp\htdocs\project\2015\2015-01\blueapp\code\vendor\laravel\framework\src\Illuminate\Foundation\Application.php(738): Illuminate\Routing\Router->dispatch(Object(Illuminate\Http\Request))
#4 E:\xampp\htdocs\project\2015\2015-01\blueapp\code\vendor\laravel\framework\src\Illuminate\Foundation\Application.php(708): Illuminate\Foundation\Application->dispatch(Object(Illuminate\Http\Request))
#5 E:\xampp\htdocs\project\2015\2015-01\blueapp\code\vendor\laravel\framework\src\Illuminate\Http\FrameGuard.php(38): Illuminate\Foundation\Application->handle(Object(Illuminate\Http\Request), 1, true)
#6 E:\xampp\htdocs\project\2015\2015-01\blueapp\code\vendor\laravel\framework\src\Illuminate\Session\Middleware.php(72): Illuminate\Http\FrameGuard->handle(Object(Illuminate\Http\Request), 1, true)
#7 E:\xampp\htdocs\project\2015\2015-01\blueapp\code\vendor\laravel\framework\src\Illuminate\Cookie\Queue.php(47): Illuminate\Session\Middleware->handle(Object(Illuminate\Http\Request), 1, true)
#8 E:\xampp\htdocs\project\2015\2015-01\blueapp\code\vendor\laravel\framework\src\Illuminate\Cookie\Guard.php(51): Illuminate\Cookie\Queue->handle(Object(Illuminate\Http\Request), 1, true)
#9 E:\xampp\htdocs\project\2015\2015-01\blueapp\code\vendor\stack\builder\src\Stack\StackedHttpKernel.php(23): Illuminate\Cookie\Guard->handle(Object(Illuminate\Http\Request), 1, true)
#10 E:\xampp\htdocs\project\2015\2015-01\blueapp\code\vendor\laravel\framework\src\Illuminate\Foundation\Application.php(606): Stack\StackedHttpKernel->handle(Object(Illuminate\Http\Request))
#11 E:\xampp\htdocs\project\2015\2015-01\blueapp\code\public\index.php(50): Illuminate\Foundation\Application->run()
#12 {main} [] []
[2015-02-12 09:34:16] local.ERROR: exception 'Symfony\Component\HttpKernel\Exception\NotFoundHttpException' in E:\xampp\htdocs\project\2015\2015-01\blueapp\code\vendor\laravel\framework\src\Illuminate\Routing\RouteCollection.php:146
Stack trace:
#0 E:\xampp\htdocs\project\2015\2015-01\blueapp\code\vendor\laravel\framework\src\Illuminate\Routing\Router.php(1021): Illuminate\Routing\RouteCollection->match(Object(Illuminate\Http\Request))
#1 E:\xampp\htdocs\project\2015\2015-01\blueapp\code\vendor\laravel\framework\src\Illuminate\Routing\Router.php(989): Illuminate\Routing\Router->findRoute(Object(Illuminate\Http\Request))
#2 E:\xampp\htdocs\project\2015\2015-01\blueapp\code\vendor\laravel\framework\src\Illuminate\Routing\Router.php(968): Illuminate\Routing\Router->dispatchToRoute(Object(Illuminate\Http\Request))
#3 E:\xampp\htdocs\project\2015\2015-01\blueapp\code\vendor\laravel\framework\src\Illuminate\Foundation\Application.php(738): Illuminate\Routing\Router->dispatch(Object(Illuminate\Http\Request))
#4 E:\xampp\htdocs\project\2015\2015-01\blueapp\code\vendor\laravel\framework\src\Illuminate\Foundation\Application.php(708): Illuminate\Foundation\Application->dispatch(Object(Illuminate\Http\Request))
#5 E:\xampp\htdocs\project\2015\2015-01\blueapp\code\vendor\laravel\framework\src\Illuminate\Http\FrameGuard.php(38): Illuminate\Foundation\Application->handle(Object(Illuminate\Http\Request), 1, true)
#6 E:\xampp\htdocs\project\2015\2015-01\blueapp\code\vendor\laravel\framework\src\Illuminate\Session\Middleware.php(72): Illuminate\Http\FrameGuard->handle(Object(Illuminate\Http\Request), 1, true)
#7 E:\xampp\htdocs\project\2015\2015-01\blueapp\code\vendor\laravel\framework\src\Illuminate\Cookie\Queue.php(47): Illuminate\Session\Middleware->handle(Object(Illuminate\Http\Request), 1, true)
#8 E:\xampp\htdocs\project\2015\2015-01\blueapp\code\vendor\laravel\framework\src\Illuminate\Cookie\Guard.php(51): Illuminate\Cookie\Queue->handle(Object(Illuminate\Http\Request), 1, true)
#9 E:\xampp\htdocs\project\2015\2015-01\blueapp\code\vendor\stack\builder\src\Stack\StackedHttpKernel.php(23): Illuminate\Cookie\Guard->handle(Object(Illuminate\Http\Request), 1, true)
#10 E:\xampp\htdocs\project\2015\2015-01\blueapp\code\vendor\laravel\framework\src\Illuminate\Foundation\Application.php(606): Stack\StackedHttpKernel->handle(Object(Illuminate\Http\Request))
#11 E:\xampp\htdocs\project\2015\2015-01\blueapp\code\public\index.php(50): Illuminate\Foundation\Application->run()
#12 {main} [] []
[2015-02-12 09:34:40] local.ERROR: exception 'Symfony\Component\HttpKernel\Exception\NotFoundHttpException' in E:\xampp\htdocs\project\2015\2015-01\blueapp\code\vendor\laravel\framework\src\Illuminate\Routing\RouteCollection.php:146
Stack trace:
#0 E:\xampp\htdocs\project\2015\2015-01\blueapp\code\vendor\laravel\framework\src\Illuminate\Routing\Router.php(1021): Illuminate\Routing\RouteCollection->match(Object(Illuminate\Http\Request))
#1 E:\xampp\htdocs\project\2015\2015-01\blueapp\code\vendor\laravel\framework\src\Illuminate\Routing\Router.php(989): Illuminate\Routing\Router->findRoute(Object(Illuminate\Http\Request))
#2 E:\xampp\htdocs\project\2015\2015-01\blueapp\code\vendor\laravel\framework\src\Illuminate\Routing\Router.php(968): Illuminate\Routing\Router->dispatchToRoute(Object(Illuminate\Http\Request))
#3 E:\xampp\htdocs\project\2015\2015-01\blueapp\code\vendor\laravel\framework\src\Illuminate\Foundation\Application.php(738): Illuminate\Routing\Router->dispatch(Object(Illuminate\Http\Request))
#4 E:\xampp\htdocs\project\2015\2015-01\blueapp\code\vendor\laravel\framework\src\Illuminate\Foundation\Application.php(708): Illuminate\Foundation\Application->dispatch(Object(Illuminate\Http\Request))
#5 E:\xampp\htdocs\project\2015\2015-01\blueapp\code\vendor\laravel\framework\src\Illuminate\Http\FrameGuard.php(38): Illuminate\Foundation\Application->handle(Object(Illuminate\Http\Request), 1, true)
#6 E:\xampp\htdocs\project\2015\2015-01\blueapp\code\vendor\laravel\framework\src\Illuminate\Session\Middleware.php(72): Illuminate\Http\FrameGuard->handle(Object(Illuminate\Http\Request), 1, true)
#7 E:\xampp\htdocs\project\2015\2015-01\blueapp\code\vendor\laravel\framework\src\Illuminate\Cookie\Queue.php(47): Illuminate\Session\Middleware->handle(Object(Illuminate\Http\Request), 1, true)
#8 E:\xampp\htdocs\project\2015\2015-01\blueapp\code\vendor\laravel\framework\src\Illuminate\Cookie\Guard.php(51): Illuminate\Cookie\Queue->handle(Object(Illuminate\Http\Request), 1, true)
#9 E:\xampp\htdocs\project\2015\2015-01\blueapp\code\vendor\stack\builder\src\Stack\StackedHttpKernel.php(23): Illuminate\Cookie\Guard->handle(Object(Illuminate\Http\Request), 1, true)
#10 E:\xampp\htdocs\project\2015\2015-01\blueapp\code\vendor\laravel\framework\src\Illuminate\Foundation\Application.php(606): Stack\StackedHttpKernel->handle(Object(Illuminate\Http\Request))
#11 E:\xampp\htdocs\project\2015\2015-01\blueapp\code\public\index.php(50): Illuminate\Foundation\Application->run()
#12 {main} [] []
[2015-02-12 09:34:44] local.ERROR: exception 'Symfony\Component\HttpKernel\Exception\NotFoundHttpException' in E:\xampp\htdocs\project\2015\2015-01\blueapp\code\vendor\laravel\framework\src\Illuminate\Routing\RouteCollection.php:146
Stack trace:
#0 E:\xampp\htdocs\project\2015\2015-01\blueapp\code\vendor\laravel\framework\src\Illuminate\Routing\Router.php(1021): Illuminate\Routing\RouteCollection->match(Object(Illuminate\Http\Request))
#1 E:\xampp\htdocs\project\2015\2015-01\blueapp\code\vendor\laravel\framework\src\Illuminate\Routing\Router.php(989): Illuminate\Routing\Router->findRoute(Object(Illuminate\Http\Request))
#2 E:\xampp\htdocs\project\2015\2015-01\blueapp\code\vendor\laravel\framework\src\Illuminate\Routing\Router.php(968): Illuminate\Routing\Router->dispatchToRoute(Object(Illuminate\Http\Request))
#3 E:\xampp\htdocs\project\2015\2015-01\blueapp\code\vendor\laravel\framework\src\Illuminate\Foundation\Application.php(738): Illuminate\Routing\Router->dispatch(Object(Illuminate\Http\Request))
#4 E:\xampp\htdocs\project\2015\2015-01\blueapp\code\vendor\laravel\framework\src\Illuminate\Foundation\Application.php(708): Illuminate\Foundation\Application->dispatch(Object(Illuminate\Http\Request))
#5 E:\xampp\htdocs\project\2015\2015-01\blueapp\code\vendor\laravel\framework\src\Illuminate\Http\FrameGuard.php(38): Illuminate\Foundation\Application->handle(Object(Illuminate\Http\Request), 1, true)
#6 E:\xampp\htdocs\project\2015\2015-01\blueapp\code\vendor\laravel\framework\src\Illuminate\Session\Middleware.php(72): Illuminate\Http\FrameGuard->handle(Object(Illuminate\Http\Request), 1, true)
#7 E:\xampp\htdocs\project\2015\2015-01\blueapp\code\vendor\laravel\framework\src\Illuminate\Cookie\Queue.php(47): Illuminate\Session\Middleware->handle(Object(Illuminate\Http\Request), 1, true)
#8 E:\xampp\htdocs\project\2015\2015-01\blueapp\code\vendor\laravel\framework\src\Illuminate\Cookie\Guard.php(51): Illuminate\Cookie\Queue->handle(Object(Illuminate\Http\Request), 1, true)
#9 E:\xampp\htdocs\project\2015\2015-01\blueapp\code\vendor\stack\builder\src\Stack\StackedHttpKernel.php(23): Illuminate\Cookie\Guard->handle(Object(Illuminate\Http\Request), 1, true)
#10 E:\xampp\htdocs\project\2015\2015-01\blueapp\code\vendor\laravel\framework\src\Illuminate\Foundation\Application.php(606): Stack\StackedHttpKernel->handle(Object(Illuminate\Http\Request))
#11 E:\xampp\htdocs\project\2015\2015-01\blueapp\code\public\index.php(50): Illuminate\Foundation\Application->run()
#12 {main} [] []
[2015-02-12 09:36:24] local.ERROR: exception 'Symfony\Component\HttpKernel\Exception\NotFoundHttpException' in E:\xampp\htdocs\project\2015\2015-01\blueapp\code\vendor\laravel\framework\src\Illuminate\Routing\RouteCollection.php:146
Stack trace:
#0 E:\xampp\htdocs\project\2015\2015-01\blueapp\code\vendor\laravel\framework\src\Illuminate\Routing\Router.php(1021): Illuminate\Routing\RouteCollection->match(Object(Illuminate\Http\Request))
#1 E:\xampp\htdocs\project\2015\2015-01\blueapp\code\vendor\laravel\framework\src\Illuminate\Routing\Router.php(989): Illuminate\Routing\Router->findRoute(Object(Illuminate\Http\Request))
#2 E:\xampp\htdocs\project\2015\2015-01\blueapp\code\vendor\laravel\framework\src\Illuminate\Routing\Router.php(968): Illuminate\Routing\Router->dispatchToRoute(Object(Illuminate\Http\Request))
#3 E:\xampp\htdocs\project\2015\2015-01\blueapp\code\vendor\laravel\framework\src\Illuminate\Foundation\Application.php(738): Illuminate\Routing\Router->dispatch(Object(Illuminate\Http\Request))
#4 E:\xampp\htdocs\project\2015\2015-01\blueapp\code\vendor\laravel\framework\src\Illuminate\Foundation\Application.php(708): Illuminate\Foundation\Application->dispatch(Object(Illuminate\Http\Request))
#5 E:\xampp\htdocs\project\2015\2015-01\blueapp\code\vendor\laravel\framework\src\Illuminate\Http\FrameGuard.php(38): Illuminate\Foundation\Application->handle(Object(Illuminate\Http\Request), 1, true)
#6 E:\xampp\htdocs\project\2015\2015-01\blueapp\code\vendor\laravel\framework\src\Illuminate\Session\Middleware.php(72): Illuminate\Http\FrameGuard->handle(Object(Illuminate\Http\Request), 1, true)
#7 E:\xampp\htdocs\project\2015\2015-01\blueapp\code\vendor\laravel\framework\src\Illuminate\Cookie\Queue.php(47): Illuminate\Session\Middleware->handle(Object(Illuminate\Http\Request), 1, true)
#8 E:\xampp\htdocs\project\2015\2015-01\blueapp\code\vendor\laravel\framework\src\Illuminate\Cookie\Guard.php(51): Illuminate\Cookie\Queue->handle(Object(Illuminate\Http\Request), 1, true)
#9 E:\xampp\htdocs\project\2015\2015-01\blueapp\code\vendor\stack\builder\src\Stack\StackedHttpKernel.php(23): Illuminate\Cookie\Guard->handle(Object(Illuminate\Http\Request), 1, true)
#10 E:\xampp\htdocs\project\2015\2015-01\blueapp\code\vendor\laravel\framework\src\Illuminate\Foundation\Application.php(606): Stack\StackedHttpKernel->handle(Object(Illuminate\Http\Request))
#11 E:\xampp\htdocs\project\2015\2015-01\blueapp\code\public\index.php(50): Illuminate\Foundation\Application->run()
#12 {main} [] []
[2015-02-12 09:37:07] local.ERROR: exception 'Symfony\Component\HttpKernel\Exception\NotFoundHttpException' in E:\xampp\htdocs\project\2015\2015-01\blueapp\code\vendor\laravel\framework\src\Illuminate\Routing\RouteCollection.php:146
Stack trace:
#0 E:\xampp\htdocs\project\2015\2015-01\blueapp\code\vendor\laravel\framework\src\Illuminate\Routing\Router.php(1021): Illuminate\Routing\RouteCollection->match(Object(Illuminate\Http\Request))
#1 E:\xampp\htdocs\project\2015\2015-01\blueapp\code\vendor\laravel\framework\src\Illuminate\Routing\Router.php(989): Illuminate\Routing\Router->findRoute(Object(Illuminate\Http\Request))
#2 E:\xampp\htdocs\project\2015\2015-01\blueapp\code\vendor\laravel\framework\src\Illuminate\Routing\Router.php(968): Illuminate\Routing\Router->dispatchToRoute(Object(Illuminate\Http\Request))
#3 E:\xampp\htdocs\project\2015\2015-01\blueapp\code\vendor\laravel\framework\src\Illuminate\Foundation\Application.php(738): Illuminate\Routing\Router->dispatch(Object(Illuminate\Http\Request))
#4 E:\xampp\htdocs\project\2015\2015-01\blueapp\code\vendor\laravel\framework\src\Illuminate\Foundation\Application.php(708): Illuminate\Foundation\Application->dispatch(Object(Illuminate\Http\Request))
#5 E:\xampp\htdocs\project\2015\2015-01\blueapp\code\vendor\laravel\framework\src\Illuminate\Http\FrameGuard.php(38): Illuminate\Foundation\Application->handle(Object(Illuminate\Http\Request), 1, true)
#6 E:\xampp\htdocs\project\2015\2015-01\blueapp\code\vendor\laravel\framework\src\Illuminate\Session\Middleware.php(72): Illuminate\Http\FrameGuard->handle(Object(Illuminate\Http\Request), 1, true)
#7 E:\xampp\htdocs\project\2015\2015-01\blueapp\code\vendor\laravel\framework\src\Illuminate\Cookie\Queue.php(47): Illuminate\Session\Middleware->handle(Object(Illuminate\Http\Request), 1, true)
#8 E:\xampp\htdocs\project\2015\2015-01\blueapp\code\vendor\laravel\framework\src\Illuminate\Cookie\Guard.php(51): Illuminate\Cookie\Queue->handle(Object(Illuminate\Http\Request), 1, true)
#9 E:\xampp\htdocs\project\2015\2015-01\blueapp\code\vendor\stack\builder\src\Stack\StackedHttpKernel.php(23): Illuminate\Cookie\Guard->handle(Object(Illuminate\Http\Request), 1, true)
#10 E:\xampp\htdocs\project\2015\2015-01\blueapp\code\vendor\laravel\framework\src\Illuminate\Foundation\Application.php(606): Stack\StackedHttpKernel->handle(Object(Illuminate\Http\Request))
#11 E:\xampp\htdocs\project\2015\2015-01\blueapp\code\public\index.php(50): Illuminate\Foundation\Application->run()
#12 {main} [] []
[2015-02-12 09:43:44] local.ERROR: exception 'Symfony\Component\HttpKernel\Exception\NotFoundHttpException' in E:\xampp\htdocs\project\2015\2015-01\blueapp\code\vendor\laravel\framework\src\Illuminate\Routing\RouteCollection.php:146
Stack trace:
#0 E:\xampp\htdocs\project\2015\2015-01\blueapp\code\vendor\laravel\framework\src\Illuminate\Routing\Router.php(1021): Illuminate\Routing\RouteCollection->match(Object(Illuminate\Http\Request))
#1 E:\xampp\htdocs\project\2015\2015-01\blueapp\code\vendor\laravel\framework\src\Illuminate\Routing\Router.php(989): Illuminate\Routing\Router->findRoute(Object(Illuminate\Http\Request))
#2 E:\xampp\htdocs\project\2015\2015-01\blueapp\code\vendor\laravel\framework\src\Illuminate\Routing\Router.php(968): Illuminate\Routing\Router->dispatchToRoute(Object(Illuminate\Http\Request))
#3 E:\xampp\htdocs\project\2015\2015-01\blueapp\code\vendor\laravel\framework\src\Illuminate\Foundation\Application.php(738): Illuminate\Routing\Router->dispatch(Object(Illuminate\Http\Request))
#4 E:\xampp\htdocs\project\2015\2015-01\blueapp\code\vendor\laravel\framework\src\Illuminate\Foundation\Application.php(708): Illuminate\Foundation\Application->dispatch(Object(Illuminate\Http\Request))
#5 E:\xampp\htdocs\project\2015\2015-01\blueapp\code\vendor\laravel\framework\src\Illuminate\Http\FrameGuard.php(38): Illuminate\Foundation\Application->handle(Object(Illuminate\Http\Request), 1, true)
#6 E:\xampp\htdocs\project\2015\2015-01\blueapp\code\vendor\laravel\framework\src\Illuminate\Session\Middleware.php(72): Illuminate\Http\FrameGuard->handle(Object(Illuminate\Http\Request), 1, true)
#7 E:\xampp\htdocs\project\2015\2015-01\blueapp\code\vendor\laravel\framework\src\Illuminate\Cookie\Queue.php(47): Illuminate\Session\Middleware->handle(Object(Illuminate\Http\Request), 1, true)
#8 E:\xampp\htdocs\project\2015\2015-01\blueapp\code\vendor\laravel\framework\src\Illuminate\Cookie\Guard.php(51): Illuminate\Cookie\Queue->handle(Object(Illuminate\Http\Request), 1, true)
#9 E:\xampp\htdocs\project\2015\2015-01\blueapp\code\vendor\stack\builder\src\Stack\StackedHttpKernel.php(23): Illuminate\Cookie\Guard->handle(Object(Illuminate\Http\Request), 1, true)
#10 E:\xampp\htdocs\project\2015\2015-01\blueapp\code\vendor\laravel\framework\src\Illuminate\Foundation\Application.php(606): Stack\StackedHttpKernel->handle(Object(Illuminate\Http\Request))
#11 E:\xampp\htdocs\project\2015\2015-01\blueapp\code\public\index.php(50): Illuminate\Foundation\Application->run()
#12 {main} [] []
[2015-02-12 09:44:48] local.ERROR: exception 'Symfony\Component\HttpKernel\Exception\NotFoundHttpException' in E:\xampp\htdocs\project\2015\2015-01\blueapp\code\vendor\laravel\framework\src\Illuminate\Routing\RouteCollection.php:146
Stack trace:
#0 E:\xampp\htdocs\project\2015\2015-01\blueapp\code\vendor\laravel\framework\src\Illuminate\Routing\Router.php(1021): Illuminate\Routing\RouteCollection->match(Object(Illuminate\Http\Request))
#1 E:\xampp\htdocs\project\2015\2015-01\blueapp\code\vendor\laravel\framework\src\Illuminate\Routing\Router.php(989): Illuminate\Routing\Router->findRoute(Object(Illuminate\Http\Request))
#2 E:\xampp\htdocs\project\2015\2015-01\blueapp\code\vendor\laravel\framework\src\Illuminate\Routing\Router.php(968): Illuminate\Routing\Router->dispatchToRoute(Object(Illuminate\Http\Request))
#3 E:\xampp\htdocs\project\2015\2015-01\blueapp\code\vendor\laravel\framework\src\Illuminate\Foundation\Application.php(738): Illuminate\Routing\Router->dispatch(Object(Illuminate\Http\Request))
#4 E:\xampp\htdocs\project\2015\2015-01\blueapp\code\vendor\laravel\framework\src\Illuminate\Foundation\Application.php(708): Illuminate\Foundation\Application->dispatch(Object(Illuminate\Http\Request))
#5 E:\xampp\htdocs\project\2015\2015-01\blueapp\code\vendor\laravel\framework\src\Illuminate\Http\FrameGuard.php(38): Illuminate\Foundation\Application->handle(Object(Illuminate\Http\Request), 1, true)
#6 E:\xampp\htdocs\project\2015\2015-01\blueapp\code\vendor\laravel\framework\src\Illuminate\Session\Middleware.php(72): Illuminate\Http\FrameGuard->handle(Object(Illuminate\Http\Request), 1, true)
#7 E:\xampp\htdocs\project\2015\2015-01\blueapp\code\vendor\laravel\framework\src\Illuminate\Cookie\Queue.php(47): Illuminate\Session\Middleware->handle(Object(Illuminate\Http\Request), 1, true)
#8 E:\xampp\htdocs\project\2015\2015-01\blueapp\code\vendor\laravel\framework\src\Illuminate\Cookie\Guard.php(51): Illuminate\Cookie\Queue->handle(Object(Illuminate\Http\Request), 1, true)
#9 E:\xampp\htdocs\project\2015\2015-01\blueapp\code\vendor\stack\builder\src\Stack\StackedHttpKernel.php(23): Illuminate\Cookie\Guard->handle(Object(Illuminate\Http\Request), 1, true)
#10 E:\xampp\htdocs\project\2015\2015-01\blueapp\code\vendor\laravel\framework\src\Illuminate\Foundation\Application.php(606): Stack\StackedHttpKernel->handle(Object(Illuminate\Http\Request))
#11 E:\xampp\htdocs\project\2015\2015-01\blueapp\code\public\index.php(50): Illuminate\Foundation\Application->run()
#12 {main} [] []
