[2014-12-29 17:36:29] stage.ERROR: exception 'Symfony\Component\HttpKernel\Exception\NotFoundHttpException' in /home/admin/dev/public_html/WebAdminDev/releases/20141107123822/vendor/laravel/framework/src/Illuminate/Routing/RouteCollection.php:146
Stack trace:
#0 /home/admin/dev/public_html/WebAdminDev/releases/20141107123822/vendor/laravel/framework/src/Illuminate/Routing/Router.php(1021): Illuminate\Routing\RouteCollection->match(Object(Illuminate\Http\Request))
#1 /home/admin/dev/public_html/WebAdminDev/releases/20141107123822/vendor/laravel/framework/src/Illuminate/Routing/Router.php(989): Illuminate\Routing\Router->findRoute(Object(Illuminate\Http\Request))
#2 /home/admin/dev/public_html/WebAdminDev/releases/20141107123822/vendor/laravel/framework/src/Illuminate/Routing/Router.php(968): Illuminate\Routing\Router->dispatchToRoute(Object(Illuminate\Http\Request))
#3 /home/admin/dev/public_html/WebAdminDev/releases/20141107123822/vendor/laravel/framework/src/Illuminate/Foundation/Application.php(738): Illuminate\Routing\Router->dispatch(Object(Illuminate\Http\Request))
#4 /home/admin/dev/public_html/WebAdminDev/releases/20141107123822/vendor/laravel/framework/src/Illuminate/Foundation/Application.php(708): Illuminate\Foundation\Application->dispatch(Object(Illuminate\Http\Request))
#5 /home/admin/dev/public_html/WebAdminDev/releases/20141107123822/vendor/laravel/framework/src/Illuminate/Http/FrameGuard.php(38): Illuminate\Foundation\Application->handle(Object(Illuminate\Http\Request), 1, true)
#6 /home/admin/dev/public_html/WebAdminDev/releases/20141107123822/vendor/laravel/framework/src/Illuminate/Session/Middleware.php(72): Illuminate\Http\FrameGuard->handle(Object(Illuminate\Http\Request), 1, true)
#7 /home/admin/dev/public_html/WebAdminDev/releases/20141107123822/vendor/laravel/framework/src/Illuminate/Cookie/Queue.php(47): Illuminate\Session\Middleware->handle(Object(Illuminate\Http\Request), 1, true)
#8 /home/admin/dev/public_html/WebAdminDev/releases/20141107123822/vendor/laravel/framework/src/Illuminate/Cookie/Guard.php(51): Illuminate\Cookie\Queue->handle(Object(Illuminate\Http\Request), 1, true)
#9 /home/admin/dev/public_html/WebAdminDev/releases/20141107123822/vendor/stack/builder/src/Stack/StackedHttpKernel.php(23): Illuminate\Cookie\Guard->handle(Object(Illuminate\Http\Request), 1, true)
#10 /home/admin/dev/public_html/WebAdminDev/releases/20141107123822/vendor/laravel/framework/src/Illuminate/Foundation/Application.php(606): Stack\StackedHttpKernel->handle(Object(Illuminate\Http\Request))
#11 /home/admin/dev/public_html/WebAdminDev/releases/20141107123822/public/index.php(49): Illuminate\Foundation\Application->run()
#12 {main} [] []
